1, 4.00, burger
1, 8.00, tofu_log
2, 5.00, burger
2, 6.50, tofu_log
3, 4.00, chef_salad
3, 8.00, steak_salad_sandwich
4, 5.00, steak_salad_sandwich
4, 2.50, wine_spritzer
5, 4.00, extreme_fajita
5, 8.00, fancy_european_water
6, 5.00, fancy_european_water
6, 3.00, extreme_fajita
6, 6.00, extreme_fajita, jalapeno_poppers, extra_salsa
